<?xml version="1.0" encoding="utf-8"?>
<!-- Generator: Adobe Illustrator 16.0.0, SVG Export Plug-In . SVG Version: 6.00 Build 0)  -->
<!DOCTYPE svg PUBLIC "-//W3C//DTD SVG 1.1//EN" "http://www.w3.org/Graphics/SVG/1.1/DTD/svg11.dtd" [
	<!ENTITY ns_extend "http://ns.adobe.com/Extensibility/1.0/">
	<!ENTITY ns_ai "http://ns.adobe.com/AdobeIllustrator/10.0/">
	<!ENTITY ns_graphs "http://ns.adobe.com/Graphs/1.0/">
	<!ENTITY ns_vars "http://ns.adobe.com/Variables/1.0/">
	<!ENTITY ns_imrep "http://ns.adobe.com/ImageReplacement/1.0/">
	<!ENTITY ns_sfw "http://ns.adobe.com/SaveForWeb/1.0/">
	<!ENTITY ns_custom "http://ns.adobe.com/GenericCustomNamespace/1.0/">
	<!ENTITY ns_adobe_xpath "http://ns.adobe.com/XPath/1.0/">
]>
<svg version="1.1" id="Layer_1" xmlns:x="&ns_extend;" xmlns:i="&ns_ai;" xmlns:graph="&ns_graphs;"
	 xmlns="http://www.w3.org/2000/svg" xmlns:xlink="http://www.w3.org/1999/xlink" x="0px" y="0px" width="792px" height="81.5px"
	 viewBox="0 0 792 81.5" enable-background="new 0 0 792 81.5" xml:space="preserve">
<metadata>
	<sfw  xmlns="&ns_sfw;">
		<slices></slices>
		<sliceSourceBounds  y="536.201" x="3.452" bottomLeftOrigin="true" height="74.299" width="715.548"></sliceSourceBounds>
	</sfw>
</metadata>
<g>
	<path fill="#284162" d="M43.381,69.302c-7.298,2.637-15.002,3.955-23.111,3.955c-6.352,0-10.812-2.23-13.379-6.69
		c-1.961-3.446-2.939-8.58-2.939-15.407c0-3.987,0.304-9.899,0.912-17.739c0.608-7.838,0.912-13.75,0.912-17.738
		c0-0.743-0.05-1.926-0.151-3.548c-0.101-1.622-0.152-2.838-0.152-3.649s0.066-1.723,0.202-2.737
		c1.352-1.622,3.006-2.433,4.967-2.433c1.891,0,3.345,1.216,4.359,3.649c0.811,1.893,1.216,3.92,1.216,6.082
		c0,4.597-0.44,11.422-1.318,20.476c-0.878,9.056-1.317,15.847-1.317,20.374c0,7.973,2.262,11.962,6.791,11.962
		c2.027,0,4.932-0.693,8.717-2.08c3.785-1.383,6.69-2.078,8.717-2.078c1.891,0,3.345,0.845,4.359,2.534
		C42.976,65.588,43.381,67.275,43.381,69.302z"/>
	<path fill="#284162" d="M86.053,54.708c0,8.719-0.271,14.866-0.811,18.448c-0.338,2.093-1.758,3.143-4.257,3.143
		c-3.786,0-5.474-1.891-5.068-5.677c-3.38,1.622-6.893,2.434-10.542,2.434c-3.515,0-6.86-0.879-10.035-2.637
		c-3.786-2.093-5.676-4.763-5.676-8.006c0-3.177,2.163-6.149,6.487-8.921c3.918-2.499,7.603-3.75,11.048-3.75h8.616v-2.414
		c0.066-7.04-2.027-10.561-6.284-10.561c-5.339,0-8.008,2.476-8.008,7.425c0,1.671-0.947,2.508-2.837,2.508
		c-1.15,0-2.349-0.523-3.599-1.572c-1.252-1.047-1.875-2.145-1.875-3.295c0-3.785,1.352-6.893,4.055-9.326
		c2.702-2.433,5.945-3.649,9.731-3.649C79.701,28.861,86.053,37.477,86.053,54.708z M75.815,58.358c0-1.352-1.014-2.027-3.041-2.027
		c-8.447,0-12.67,1.993-12.67,5.979c0,2.165,1.858,3.244,5.575,3.244c2.296,0,4.46-0.642,6.487-1.926
		C74.599,62.207,75.815,60.452,75.815,58.358z"/>
	<path fill="#284162" d="M153.863,61.987c0,4.128-2.399,7.308-7.197,9.542c-3.786,1.828-8.007,2.743-12.67,2.743
		c-4.257,0-9.259-0.948-15.002-2.839c-7.095-2.431-10.643-5.27-10.643-8.513c0-1.217,0.438-2.265,1.318-3.144
		c0.877-0.876,1.926-1.317,3.143-1.317c1.825,0,3.513,0.744,5.068,2.23c2.635,2.23,4.054,3.446,4.257,3.648
		c2.365,1.354,6.622,2.027,12.772,2.027c5.473,0,8.21-1.248,8.21-3.75c0-2.094-2.568-5-7.703-8.717
		c-3.583-2.296-7.164-4.594-10.745-6.893c-4.596-3.107-7.94-6.046-10.035-8.818c-2.772-3.649-4.156-7.837-4.156-12.569
		c0-5.945,1.825-11.251,5.473-15.914C119.872,4.569,124.737,2,130.55,2c5,0,9.224,1.369,12.67,4.106
		c3.446,2.737,5.641,6.572,6.588,11.503c0.203,1.893,0.608,4.698,1.216,8.414c0.27,1.082,0.405,1.892,0.405,2.433
		c0,2.432-0.405,4.495-1.216,6.183c-1.014,2.299-2.601,3.447-4.764,3.447c-1.216,0-2.382-0.56-3.496-1.679
		c-1.115-1.119-1.672-2.288-1.672-3.51c0-0.882,0.203-2.189,0.608-3.918c0.406-1.729,0.608-3.036,0.608-3.917
		c0-9.156-3.041-13.737-9.123-13.737c-3.38,0-6.218,1.439-8.515,4.315c-2.297,2.876-3.446,6.041-3.446,9.491
		c0,4.874,2.904,9.611,8.717,14.214c5.337,3.589,10.709,7.177,16.117,10.763C150.99,54.237,153.863,58.197,153.863,61.987z"/>
	<path fill="#284162" d="M194.509,51.972c0,6.082-1.521,11.286-4.562,15.61c-3.515,4.931-8.176,7.399-13.987,7.399
		c-5.947,0-10.44-2.027-13.481-6.082c-2.772-3.579-4.156-8.447-4.156-14.595c0-6.082,1.521-11.826,4.562-17.231
		c3.513-6.419,8.074-9.629,13.684-9.629c1.756,0,3.954,0.776,6.588,2.331C190.724,34.301,194.509,41.7,194.509,51.972z
		 M185.59,51.769c0-10.339-2.501-15.508-7.501-15.508c-3.583,0-6.285,2.196-8.109,6.588c-1.353,3.311-2.027,7.062-2.027,11.251
		c0,8.989,2.669,13.481,8.008,13.481c3.446,0,6.014-1.858,7.703-5.575C184.946,59.166,185.59,55.756,185.59,51.769z"/>
	<path fill="#284162" d="M233.736,35.74c0,2.091-0.254,5.243-0.76,9.455c-0.507,4.214-0.759,7.399-0.759,9.556
		c0,1.889,0.083,4.704,0.254,8.445c0.169,3.741,0.254,6.523,0.254,8.341c0,1.551-1.318,2.326-3.954,2.326
		c-2.703,0-4.426-1.283-5.169-3.851c-2.57,1.689-5.068,2.534-7.501,2.534c-1.961,0-4.191-0.524-6.69-1.57
		c-2.5-1.048-4.257-2.315-5.271-3.801c-1.961-2.837-2.939-7.399-2.939-13.684c0-2.163,0.067-5.945,0.204-11.354
		c0.205-4.797,0.273-8.548,0.206-11.25c2.046-1.486,3.752-2.23,5.118-2.23c3.275,0,4.913,1.588,4.913,4.764
		c0,1.081-0.169,2.703-0.507,4.866c-0.338,2.164-0.507,3.785-0.507,4.866v14.292c0,1.622,0.439,3.313,1.318,5.068
		c1.08,2.027,2.365,3.041,3.852,3.041c2.905,0,5.068-1.858,6.487-5.575c0.946-2.567,1.419-5.676,1.419-9.325V38.489
		c0-1.553-0.405-3.48-1.216-5.777c1.688-1.554,3.31-2.332,4.866-2.332c1.621,0,3.092,0.507,4.409,1.518
		C233.076,32.91,233.736,34.191,233.736,35.74z"/>
	<path fill="#284162" d="M267.083,37.072c0,0.472-0.067,1.216-0.203,2.229c-1.419,2.027-2.906,3.041-4.46,3.041
		c-1.284,0-2.433-0.744-3.446-2.23c-0.137-3.041-1.216-4.561-3.244-4.561c-1.216,0-2.703,3.21-4.46,9.629
		c-0.811,2.838-1.216,6.791-1.216,11.859c0,4.799,0.221,7.704,0.663,8.717c0.504,1.286,0.757,2.163,0.757,2.634
		c0,1.151-0.519,2.08-1.557,2.788s-2.192,1.065-3.463,1.065c-3.613,0-5.42-1.689-5.42-5.068c0-0.338,0.084-0.812,0.254-1.419
		c0.167-0.608,0.254-1.046,0.254-1.318c0-3.446-0.169-8.566-0.507-15.357c-0.339-6.791-0.507-11.876-0.507-15.256
		c0-3.041,1.825-4.561,5.473-4.561c2.163,0,3.649,0.643,4.46,1.926c1.891-2.094,4.02-3.143,6.385-3.143
		c1.622,0,3.176,0.441,4.663,1.318c1.014,0.542,2.195,1.707,3.548,3.496C266.407,34.656,267.083,36.058,267.083,37.072z"/>
	<path fill="#284162" d="M305.093,60.485c0,2.094-1.588,4.561-4.764,7.4c-2.838,2.635-5.39,4.29-7.654,4.965
		c-2.265,0.676-4.41,1.014-6.438,1.014c-5.338,0-9.511-1.689-12.517-5.068c-3.009-3.379-4.51-7.737-4.51-13.074
		c0-5.204,1.384-11.014,4.155-17.435c3.31-7.704,7.162-11.556,11.556-11.556c2.433,0,5.372,0.948,8.818,2.838
		c3.649,2.095,5.778,4.191,6.386,6.284c0.539,1.825,0.81,3.887,0.81,6.184c0,2.094-0.44,4.459-1.317,7.095
		c-1.083,3.38-2.433,5.068-4.055,5.068c-1.15,0-2.23-0.336-3.244-1.01c-1.216-0.737-1.824-1.644-1.824-2.722
		c0-0.066,0.303-0.839,0.912-2.319c0.338-0.671,0.507-2.522,0.507-5.546c0-2.486-0.102-4.101-0.304-4.84
		c-0.405-2.084-1.352-3.126-2.838-3.126c-3.311,0-5.879,2.864-7.703,8.589c-1.353,4.245-2.027,8.521-2.027,12.833
		c0,7.208,2.295,10.812,6.892,10.812c1.825,0,3.918-0.947,6.285-2.839c2.162-1.755,3.683-3.547,4.562-5.373
		c1.08-2.162,2.397-3.243,3.953-3.243c1.014,0,1.993,0.593,2.939,1.772C304.619,58.375,305.093,59.471,305.093,60.485z"/>
	<path fill="#284162" d="M342.799,63.019c0,3.38-2.298,6.016-6.893,7.907c-3.583,1.485-7.333,2.229-11.25,2.229
		c-10.407,0-15.61-5.913-15.61-17.739c0-4.866,1.181-10.271,3.548-16.218c2.904-7.298,6.419-10.947,10.542-10.947
		c3.715,0,7.72,1.657,12.012,4.967c4.29,3.311,6.436,6.758,6.436,10.339c0,4.46-1.994,8.007-5.981,10.643
		c-3.515,2.366-7.703,3.548-12.568,3.548c-0.948,0-2.468-0.573-4.562-1.724c0.269,6.42,2.163,9.629,5.677,9.629
		c2.973,0,5.895-0.845,8.767-2.534s4.714-2.534,5.525-2.534C341.344,60.588,342.799,61.399,342.799,63.019z M331.75,43.863
		c0-1.689-0.491-3.295-1.469-4.814c-0.981-1.521-2.282-2.281-3.903-2.281c-2.229,0-3.953,0.98-5.169,2.939
		c-1.014,1.689-1.521,3.685-1.521,5.981c0,1.284,0.438,2.331,1.318,3.142c0.877,0.812,1.994,1.216,3.345,1.216
		C329.282,50.044,331.75,47.985,331.75,43.863z"/>
	<path fill="#284162" d="M363.678,59.612h10.136v2.352h-10.136V59.612z"/>
	<path fill="#284162" d="M391.735,42.991v28.948h-2.555V42.991H391.735z"/>
	<path fill="#284162" d="M401.222,47.329c0,0.595-0.075,1.183-0.222,1.764c-0.148,0.581-0.372,1.121-0.67,1.622
		c-0.296,0.501-0.668,0.939-1.114,1.318c-0.446,0.378-0.979,0.648-1.603,0.811V51.1c0.352-0.108,0.648-0.304,0.893-0.588
		c0.244-0.284,0.446-0.615,0.608-0.993c0.162-0.379,0.276-0.764,0.345-1.156c0.068-0.392,0.087-0.75,0.061-1.074h-1.702v-4.298
		h3.404V47.329z"/>
	<path fill="#284162" d="M409.695,42.991v4.095h-2.557v-4.095H409.695z M409.695,51.019v20.92h-2.557v-20.92H409.695z"/>
	<path fill="#284162" d="M416.709,51.019v3.608h0.082c0.486-1.271,1.352-2.291,2.593-3.062c1.243-0.77,2.608-1.155,4.097-1.155
		c1.46,0,2.682,0.189,3.669,0.567c0.985,0.379,1.775,0.913,2.373,1.602c0.594,0.689,1.014,1.536,1.257,2.535
		c0.244,1,0.364,2.123,0.364,3.366v13.459h-2.554V58.884c0-0.891-0.083-1.723-0.244-2.492c-0.164-0.771-0.445-1.44-0.853-2.008
		c-0.405-0.568-0.953-1.013-1.643-1.338c-0.688-0.324-1.549-0.486-2.573-0.486c-1.028,0-1.939,0.183-2.735,0.547
		c-0.798,0.365-1.475,0.865-2.027,1.5c-0.555,0.635-0.986,1.391-1.298,2.27s-0.479,1.832-0.508,2.859v12.203h-2.554v-20.92H416.709z
		"/>
	<path fill="#284162" d="M443.875,51.019v2.148h-4.258v14.11c0,0.837,0.114,1.493,0.344,1.966c0.231,0.473,0.806,0.737,1.725,0.79
		c0.729,0,1.459-0.04,2.189-0.122v2.149c-0.379,0-0.759,0.014-1.136,0.042c-0.378,0.026-0.759,0.04-1.136,0.04
		c-1.704,0-2.895-0.331-3.569-0.992c-0.676-0.663-1-1.886-0.974-3.669V53.167h-3.648v-2.148h3.648v-6.285h2.555v6.285H443.875
		L443.875,51.019z"/>
	<path fill="#284162" d="M449.511,51.019v4.906h0.08c0.649-1.703,1.657-3.014,3.021-3.933c1.362-0.918,2.993-1.338,4.886-1.256
		v2.554c-1.163-0.054-2.219,0.101-3.162,0.466c-0.946,0.365-1.767,0.886-2.454,1.562c-0.687,0.676-1.224,1.479-1.601,2.412
		c-0.379,0.933-0.567,1.953-0.567,3.061v11.15h-2.557v-20.92h2.354V51.019z"/>
	<path fill="#284162" d="M460.051,54.261c0.433-0.892,1.02-1.622,1.766-2.19c0.742-0.567,1.611-0.985,2.613-1.256
		c1-0.271,2.109-0.406,3.324-0.406c0.919,0,1.839,0.088,2.758,0.264c0.918,0.175,1.743,0.506,2.474,0.993
		c0.729,0.486,1.322,1.168,1.784,2.047c0.46,0.878,0.688,2.021,0.688,3.425v11.11c0,1.027,0.5,1.542,1.499,1.542
		c0.299,0,0.569-0.056,0.812-0.164v2.149c-0.298,0.055-0.562,0.095-0.79,0.123c-0.229,0.026-0.521,0.041-0.872,0.041
		c-0.648,0-1.168-0.087-1.562-0.264c-0.392-0.177-0.698-0.426-0.913-0.75c-0.215-0.325-0.358-0.71-0.425-1.156
		s-0.102-0.939-0.102-1.48h-0.081c-0.462,0.675-0.929,1.277-1.398,1.805c-0.475,0.527-1.001,0.966-1.581,1.317
		c-0.584,0.351-1.244,0.622-1.988,0.81c-0.743,0.19-1.629,0.285-2.654,0.285c-0.975,0-1.887-0.116-2.736-0.346
		s-1.597-0.594-2.23-1.094c-0.635-0.5-1.135-1.135-1.498-1.906c-0.365-0.77-0.548-1.683-0.548-2.736c0-1.46,0.324-2.603,0.975-3.426
		c0.647-0.824,1.507-1.453,2.574-1.886c1.067-0.432,2.271-0.736,3.607-0.912c1.339-0.176,2.696-0.345,4.074-0.507
		c0.542-0.054,1.014-0.122,1.421-0.204c0.406-0.081,0.744-0.222,1.014-0.425s0.479-0.48,0.629-0.832
		c0.146-0.351,0.225-0.811,0.225-1.378c0-0.866-0.144-1.576-0.427-2.129c-0.283-0.554-0.677-0.994-1.177-1.318
		c-0.5-0.325-1.081-0.547-1.742-0.669c-0.663-0.122-1.372-0.182-2.129-0.182c-1.62,0-2.946,0.385-3.973,1.155
		c-1.028,0.771-1.568,2.008-1.622,3.71h-2.554C459.36,56.207,459.616,55.154,460.051,54.261z M472.821,60.507
		c-0.162,0.297-0.474,0.512-0.933,0.648c-0.461,0.136-0.865,0.229-1.216,0.284c-1.081,0.19-2.196,0.359-3.346,0.507
		c-1.15,0.148-2.196,0.372-3.143,0.669c-0.945,0.297-1.724,0.723-2.332,1.276c-0.607,0.554-0.912,1.346-0.912,2.373
		c0,0.648,0.128,1.222,0.386,1.724c0.256,0.499,0.602,0.932,1.034,1.296c0.432,0.365,0.932,0.643,1.499,0.831
		c0.567,0.19,1.147,0.284,1.743,0.284c0.974,0,1.905-0.146,2.799-0.446c0.891-0.297,1.667-0.73,2.331-1.297
		c0.661-0.567,1.188-1.256,1.58-2.067c0.393-0.812,0.591-1.73,0.591-2.758v-3.323L472.821,60.507L472.821,60.507z"/>
	<path fill="#284162" d="M482.675,51.019v3.608h0.081c0.486-1.271,1.352-2.291,2.595-3.062c1.244-0.77,2.61-1.155,4.096-1.155
		c1.46,0,2.682,0.189,3.669,0.567c0.988,0.379,1.777,0.913,2.372,1.602c0.596,0.689,1.014,1.536,1.259,2.535
		c0.243,1,0.364,2.123,0.364,3.366v13.459h-2.555V58.884c0-0.891-0.083-1.723-0.243-2.492c-0.161-0.771-0.444-1.44-0.854-2.008
		c-0.405-0.568-0.951-1.013-1.642-1.338c-0.689-0.324-1.547-0.486-2.574-0.486s-1.939,0.183-2.735,0.547
		c-0.796,0.364-1.475,0.865-2.026,1.5c-0.556,0.635-0.986,1.391-1.299,2.27c-0.312,0.879-0.479,1.832-0.507,2.859v12.203h-2.555
		v-20.92H482.675z"/>
	<path fill="#284162" d="M503.413,65.026c0.256,0.986,0.669,1.871,1.237,2.655c0.566,0.784,1.281,1.434,2.147,1.945
		c0.865,0.515,1.905,0.771,3.122,0.771c1.865,0,3.325-0.486,4.38-1.46c1.053-0.973,1.783-2.27,2.188-3.892h2.556
		c-0.541,2.38-1.534,4.217-2.979,5.514c-1.446,1.297-3.493,1.947-6.144,1.947c-1.647,0-3.075-0.29-4.277-0.872
		c-1.202-0.581-2.183-1.379-2.938-2.393c-0.759-1.014-1.318-2.188-1.683-3.526c-0.365-1.338-0.549-2.75-0.549-4.237
		c0-1.379,0.185-2.73,0.549-4.055c0.365-1.324,0.926-2.506,1.683-3.548c0.757-1.041,1.736-1.878,2.938-2.513
		c1.202-0.635,2.63-0.953,4.277-0.953c1.677,0,3.108,0.338,4.299,1.014c1.189,0.676,2.155,1.562,2.899,2.656
		c0.743,1.095,1.275,2.351,1.602,3.77c0.324,1.42,0.459,2.859,0.406,4.318H503.03C503.028,63.089,503.156,64.04,503.413,65.026z
		 M516.062,57.221c-0.312-0.892-0.75-1.683-1.318-2.372c-0.567-0.689-1.257-1.242-2.067-1.663c-0.812-0.419-1.729-0.628-2.757-0.628
		c-1.053,0-1.987,0.209-2.797,0.628c-0.812,0.42-1.5,0.974-2.068,1.663c-0.566,0.689-1.02,1.487-1.356,2.393
		c-0.34,0.906-0.562,1.831-0.669,2.777h13.542C516.543,59.045,516.374,58.114,516.062,57.221z"/>
	<path fill="#284162" d="M530.479,51.019v2.148h-4.259v14.11c0,0.837,0.115,1.493,0.346,1.966c0.229,0.473,0.805,0.737,1.724,0.79
		c0.729,0,1.46-0.04,2.189-0.122v2.149c-0.38,0-0.76,0.014-1.136,0.042c-0.379,0.026-0.759,0.04-1.138,0.04
		c-1.703,0-2.893-0.331-3.567-0.992c-0.676-0.663-1.001-1.886-0.973-3.669V53.167h-3.649v-2.148h3.649v-6.285h2.554v6.285H530.479
		L530.479,51.019z"/>
	<path fill="#284162" d="M560.682,71.939v-3.973h-0.08c-0.271,0.676-0.67,1.297-1.195,1.865c-0.529,0.568-1.131,1.047-1.807,1.44
		c-0.677,0.391-1.396,0.696-2.168,0.912c-0.771,0.215-1.533,0.323-2.291,0.323c-1.595,0-2.979-0.29-4.153-0.871
		c-1.177-0.581-2.157-1.378-2.941-2.392c-0.784-1.014-1.365-2.189-1.743-3.528c-0.378-1.339-0.567-2.75-0.567-4.236
		c0-1.488,0.189-2.9,0.567-4.238c0.378-1.337,0.959-2.513,1.743-3.526c0.784-1.013,1.766-1.818,2.941-2.413
		c1.174-0.593,2.561-0.892,4.153-0.892c0.783,0,1.549,0.095,2.291,0.284c0.743,0.189,1.439,0.48,2.088,0.872
		c0.649,0.394,1.225,0.872,1.725,1.44c0.497,0.567,0.883,1.229,1.152,1.987h0.084V42.991h2.554v28.948H560.682z M546.675,64.703
		c0.256,1.069,0.661,2.021,1.215,2.858c0.556,0.838,1.265,1.521,2.13,2.047c0.863,0.528,1.905,0.791,3.121,0.791
		c1.353,0,2.495-0.263,3.427-0.791c0.934-0.526,1.688-1.209,2.271-2.047s0.999-1.79,1.258-2.858
		c0.256-1.068,0.387-2.143,0.387-3.223c0-1.081-0.131-2.155-0.387-3.225c-0.258-1.066-0.676-2.019-1.258-2.857
		s-1.337-1.52-2.271-2.047c-0.932-0.527-2.074-0.791-3.427-0.791c-1.215,0-2.258,0.264-3.121,0.791
		c-0.865,0.527-1.574,1.209-2.13,2.047c-0.554,0.838-0.959,1.791-1.215,2.857c-0.257,1.069-0.385,2.144-0.385,3.225
		C546.289,62.561,546.417,63.634,546.675,64.703z"/>
	<path fill="#284162" d="M569.379,65.026c0.255,0.986,0.67,1.871,1.237,2.655c0.566,0.784,1.281,1.434,2.147,1.945
		c0.864,0.515,1.906,0.771,3.121,0.771c1.865,0,3.325-0.486,4.38-1.46c1.055-0.973,1.784-2.27,2.189-3.892h2.554
		c-0.54,2.38-1.534,4.217-2.979,5.514s-3.493,1.947-6.144,1.947c-1.647,0-3.072-0.29-4.276-0.872
		c-1.202-0.581-2.183-1.379-2.939-2.393c-0.757-1.014-1.315-2.188-1.683-3.526c-0.364-1.338-0.546-2.75-0.546-4.237
		c0-1.379,0.183-2.73,0.546-4.055c0.367-1.324,0.927-2.506,1.683-3.548c0.758-1.041,1.737-1.878,2.939-2.513
		c1.204-0.635,2.629-0.953,4.276-0.953c1.678,0,3.108,0.338,4.301,1.014c1.188,0.676,2.155,1.562,2.897,2.656
		c0.743,1.095,1.278,2.351,1.604,3.77c0.322,1.42,0.459,2.859,0.405,4.318h-16.097C568.994,63.089,569.122,64.04,569.379,65.026z
		 M582.028,57.221c-0.31-0.892-0.749-1.683-1.317-2.372c-0.567-0.689-1.256-1.242-2.067-1.663c-0.811-0.419-1.729-0.628-2.758-0.628
		c-1.052,0-1.985,0.209-2.795,0.628c-0.812,0.42-1.501,0.974-2.067,1.663c-0.567,0.689-1.021,1.487-1.358,2.393
		c-0.339,0.906-0.562,1.831-0.669,2.777h13.542C582.509,59.045,582.34,58.114,582.028,57.221z"/>
	<path fill="#284162" d="M612.742,42.991c1.188,0,2.316,0.148,3.386,0.446c1.067,0.297,1.999,0.75,2.796,1.358
		c0.799,0.608,1.435,1.392,1.906,2.351c0.474,0.96,0.71,2.089,0.71,3.386c0,1.838-0.476,3.433-1.42,4.785
		c-0.946,1.352-2.351,2.215-4.217,2.595v0.081c0.945,0.135,1.729,0.384,2.352,0.75c0.622,0.365,1.129,0.832,1.521,1.399
		s0.676,1.224,0.852,1.966c0.176,0.743,0.29,1.548,0.345,2.413c0.027,0.487,0.055,1.081,0.081,1.783
		c0.028,0.704,0.082,1.412,0.163,2.129c0.081,0.717,0.208,1.394,0.385,2.027c0.177,0.635,0.412,1.128,0.709,1.479h-3.041
		c-0.161-0.269-0.291-0.601-0.386-0.993c-0.095-0.392-0.162-0.797-0.201-1.217c-0.041-0.418-0.074-0.832-0.102-1.235
		c-0.028-0.406-0.055-0.757-0.081-1.056c-0.056-1.027-0.143-2.047-0.264-3.061c-0.121-1.013-0.379-1.917-0.771-2.716
		c-0.391-0.797-0.96-1.44-1.703-1.926c-0.744-0.487-1.763-0.702-3.061-0.649H602.24v12.853h-2.757V42.991H612.742z M612.54,56.735
		c0.837,0,1.636-0.128,2.393-0.386c0.758-0.255,1.419-0.628,1.986-1.114c0.569-0.487,1.021-1.074,1.36-1.764
		c0.336-0.689,0.506-1.48,0.506-2.372c0-1.784-0.516-3.189-1.541-4.217c-1.028-1.027-2.595-1.541-4.703-1.541h-10.298v11.393
		L612.54,56.735L612.54,56.735z"/>
	<path fill="#284162" d="M629.163,42.991l16.866,24.49h0.082v-24.49h2.757v28.948h-3.082L628.922,47.45h-0.083v24.489h-2.756V42.991
		H629.163z"/>
	<path fill="#284162" d="M674.229,48.768c-0.556-0.878-1.23-1.615-2.027-2.209c-0.799-0.595-1.676-1.048-2.635-1.359
		c-0.96-0.31-1.967-0.466-3.021-0.466c-1.919,0-3.566,0.365-4.947,1.095c-1.378,0.73-2.506,1.696-3.385,2.898
		c-0.878,1.203-1.527,2.562-1.945,4.075c-0.42,1.515-0.629,3.069-0.629,4.663c0,1.568,0.209,3.116,0.629,4.643
		s1.067,2.892,1.945,4.094c0.878,1.204,2.007,2.17,3.385,2.9c1.381,0.73,3.028,1.094,4.947,1.094c1.353,0,2.566-0.243,3.649-0.729
		c1.081-0.487,2.013-1.149,2.796-1.987c0.783-0.837,1.421-1.817,1.905-2.939c0.485-1.122,0.798-2.332,0.933-3.628h2.758
		c-0.189,1.784-0.609,3.392-1.257,4.825c-0.649,1.432-1.489,2.646-2.515,3.647c-1.027,1-2.236,1.771-3.63,2.312
		c-1.395,0.541-2.939,0.812-4.644,0.812c-2.271,0-4.265-0.413-5.98-1.238c-1.718-0.824-3.142-1.924-4.276-3.304
		c-1.135-1.379-1.986-2.974-2.555-4.784c-0.567-1.811-0.853-3.717-0.853-5.717s0.284-3.906,0.853-5.716
		c0.567-1.811,1.42-3.413,2.555-4.805c1.136-1.392,2.562-2.5,4.276-3.324c1.716-0.824,3.711-1.237,5.98-1.237
		c1.379,0,2.723,0.203,4.035,0.608c1.311,0.405,2.499,1.007,3.566,1.804s1.961,1.777,2.678,2.939c0.714,1.163,1.166,2.5,1.356,4.014
		h-2.757C675.181,50.64,674.781,49.647,674.229,48.768z"/>
	<path fill="#284162" d="M682.439,54.261c0.432-0.892,1.021-1.622,1.765-2.19c0.743-0.567,1.612-0.985,2.614-1.256
		c1.001-0.271,2.109-0.406,3.324-0.406c0.921,0,1.839,0.088,2.758,0.264c0.918,0.175,1.742,0.506,2.474,0.993
		c0.729,0.486,1.323,1.168,1.784,2.047c0.459,0.878,0.688,2.021,0.688,3.425v11.11c0,1.027,0.501,1.542,1.501,1.542
		c0.298,0,0.567-0.056,0.812-0.164v2.149c-0.297,0.055-0.562,0.095-0.791,0.123c-0.229,0.026-0.521,0.041-0.871,0.041
		c-0.649,0-1.169-0.087-1.562-0.264c-0.392-0.177-0.697-0.426-0.91-0.75c-0.218-0.325-0.36-0.71-0.428-1.156
		c-0.065-0.446-0.102-0.939-0.102-1.48h-0.081c-0.46,0.675-0.928,1.277-1.398,1.805c-0.473,0.527-1.001,0.966-1.581,1.317
		c-0.582,0.351-1.242,0.622-1.985,0.81c-0.746,0.19-1.629,0.285-2.657,0.285c-0.974,0-1.886-0.116-2.735-0.346
		c-0.852-0.229-1.598-0.594-2.229-1.094c-0.636-0.5-1.136-1.135-1.498-1.906c-0.367-0.77-0.548-1.683-0.548-2.736
		c0-1.46,0.324-2.603,0.973-3.426c0.649-0.824,1.507-1.453,2.575-1.886c1.067-0.432,2.27-0.736,3.608-0.912
		c1.338-0.176,2.695-0.345,4.073-0.507c0.541-0.054,1.015-0.122,1.421-0.204c0.405-0.081,0.743-0.222,1.015-0.425
		c0.269-0.203,0.478-0.48,0.628-0.832c0.146-0.351,0.224-0.811,0.224-1.378c0-0.866-0.143-1.576-0.427-2.129
		c-0.283-0.554-0.676-0.994-1.176-1.318c-0.5-0.325-1.081-0.547-1.743-0.669c-0.663-0.122-1.371-0.182-2.128-0.182
		c-1.62,0-2.947,0.385-3.974,1.155c-1.027,0.771-1.566,2.008-1.621,3.71h-2.555C681.749,56.207,682.007,55.154,682.439,54.261z
		 M695.21,60.507c-0.162,0.297-0.473,0.512-0.931,0.648c-0.462,0.136-0.867,0.229-1.217,0.284c-1.081,0.19-2.196,0.359-3.346,0.507
		s-2.195,0.372-3.142,0.669c-0.947,0.297-1.726,0.723-2.333,1.276c-0.606,0.554-0.913,1.346-0.913,2.373
		c0,0.648,0.128,1.222,0.386,1.724c0.257,0.499,0.603,0.932,1.034,1.296c0.432,0.365,0.933,0.643,1.5,0.831
		c0.567,0.19,1.147,0.284,1.743,0.284c0.973,0,1.906-0.146,2.798-0.446c0.891-0.297,1.667-0.73,2.331-1.297
		c0.662-0.567,1.188-1.256,1.581-2.067c0.392-0.812,0.589-1.73,0.589-2.758v-3.323L695.21,60.507L695.21,60.507z"/>
	<path fill="#284162" d="M705.062,51.019v3.608h0.082c0.485-1.271,1.353-2.291,2.596-3.062c1.242-0.77,2.608-1.155,4.094-1.155
		c1.46,0,2.683,0.189,3.671,0.567c0.987,0.379,1.776,0.913,2.372,1.602c0.594,0.689,1.014,1.536,1.258,2.535
		c0.242,1,0.365,2.123,0.365,3.366v13.459h-2.555V58.884c0-0.891-0.082-1.723-0.244-2.492c-0.161-0.771-0.445-1.44-0.853-2.008
		c-0.404-0.568-0.953-1.013-1.643-1.338c-0.689-0.324-1.548-0.486-2.574-0.486s-1.939,0.183-2.736,0.547
		c-0.796,0.364-1.475,0.865-2.026,1.5c-0.555,0.635-0.985,1.391-1.297,2.27s-0.479,1.832-0.508,2.859v12.203h-2.556v-20.92H705.062z
		"/>
</g>
</svg>
